{
    "_links": {
        "self": {
            "href": "http:\/\/default\/file\/8?_format=hal_json"
        },
        "type": {
            "href": "http:\/\/drupal.org\/rest\/type\/file\/image"
        },
        "http:\/\/drupal.org\/rest\/relation\/file\/image\/uid": [
            {
                "href": "http:\/\/default\/user\/1?_format=hal_json"
            }
        ]
    },
    "fid": [
        {
            "value": 8
        }
    ],
    "uuid": [
        {
            "value": "f879ec43-b7f0-41c3-bd7a-1baaf2329963"
        }
    ],
    "langcode": [
        {
            "value": "en"
        }
    ],
    "type": [
        {
            "target_id": "image"
        }
    ],
    "_embedded": {
        "http:\/\/drupal.org\/rest\/relation\/file\/image\/uid": [
            {
                "_links": {
                    "self": {
                        "href": "http:\/\/default\/user\/1?_format=hal_json"
                    },
                    "type": {
                        "href": "http:\/\/drupal.org\/rest\/type\/user\/user"
                    }
                },
                "uuid": [
                    {
                        "value": "a467c5e0-72cb-48d8-bdcb-db9b441fa1e0"
                    }
                ]
            }
        ]
    },
    "filename": [
        {
            "value": "Layer 48.png"
        }
    ],
    "uri": [
        {
            "value": "public:\/\/2018-11\/Layer 48.png",
            "url": "\/sites\/default\/files\/2018-11\/Layer%2048.png"
        }
    ],
    "filemime": [
        {
            "value": "image\/png"
        }
    ],
    "filesize": [
        {
            "value": 16376
        }
    ],
    "status": [
        {
            "value": true
        }
    ],
    "created": [
        {
            "value": "2018-11-16T05:31:16+00:00",
            "format": "Y-m-d\\TH:i:sP"
        }
    ],
    "changed": [
        {
            "value": "2018-11-16T05:31:59+00:00",
            "format": "Y-m-d\\TH:i:sP"
        }
    ],
    "data": [
        {
            "value": "iVBORw0KGgoAAAANSUhEUgAAAFIAAABSCAYAAADHLIObAAAABGdBTUEAALGPC\/xhBQAAACBjSFJNAAB6JgAAgIQAAPoAAACA6AAAdTAAAOpgAAA6mAAAF3CculE8AAAABmJLR0QA\/wD\/AP+gvaeTAAA\/D0lEQVR42lX9aaytWXrfh\/3W+I57OuOdqm7NPbDJFtnNQSRlUpEMRVZk2I5kgI6jWLEiypYtBQiCyBCQxEnkDAIERYGDyHYCwwkQT6EdWbDkUKIGKmRbIhXR7K6u6pqrbt3pjHt6pzXlw9p1u7WB8+Xee+7Ze71rPev\/\/IfniK9842WEFJSFQY+RekpME\/RJcBsVRWmIccJPEwiQEkAiHVgEXQhMDnQF86MCIRLeOaYxkSQgIAzQWMuAZ1gHlNS88hP3mbordlfTg9vH7isppDeF4KEQ4r7QHNeVXLZtU5aFrUM\/jMnQlTrtCpe2MYrrTec\/nDwf9o6P92F8V1biOnSQfKSdzfjv\/ZE\/yl\/\/q3+FTz75mC9eZ8cnfO31U\/7h2x+x7ibaY8PgHGWhUSIyjgEQ+ABKgtWCfp2Y311iakO\/7hACpLCgNYvzO3TXj\/BOoiFR6IJqhNB5ktYA1EqwGyf2YUBZQUogEqBgpjXOOdaDJyGwpQADbpwQOpEiCCWILuEnCENkcJ6gIqh0HH34ud3Ti5+d\/PTj68\/9WYoJAYAgpYSRCmsNNkbMMDA3FFZSjPtplVJkWRe8dL\/62V3vmKLEpYZn+91HmxC\/1YX0q7vt9tf+wd\/\/Vq+0OvyvAgSc3LvDZ1db1ruBBGzXDlkkvPck8iZJCbQEISHJRBSJYesolzOEGkgpgkrE5Bh2F0xDhw+gQxTUQWFcODy3hJBwtiiJSvPZZg9RkkIipMRJrWiQfDYmEoKy1ZQzxW434XzCaIVUEe8EfkiEKQGiGib\/+7Wx\/7Qp5U+EwasQCrqrkRi\/2C8CIQTGQmUSVYwwdAShmJTElpJ2VrPZD1xuJ5SSLKqSy+2OVWWYm\/rVbpFevR3FLzy+3Pdvf\/vbfzvG+J8Bfy+RgkBw8ewpt7cbvnhsBBAif5HyeyAJpAQhElpZpPR06z3lzKIUeJeQQpFiJEwBPwggoh68dMxMaKKfUDL\/AC0TD05nBK24jRJJwg2RVktePWl4cj0x+EBRKRanNYhECB5b1JA00zYw7gIg7gkt\/vUU+fPAP6W0fmm2OpcoDWJg6AMp5B2TpKAqJMta0WhJESUGhZUSkRJKgFGCprIMPiETzNuCmKCfQFiNdw6dIqer2ty7d+\/NcXJ\/sOv6fw4wwPvdvhtjiCgjkFqSAlS1oSjziUtJQMobSUrQRYnrwDtH9IFmVYKKEAUCjVSCMDhi8KjzsxXJR2oROZoVaCVQWnC+aigKyy7WdF2PHx2vHpUYrfn4akCqxPJOgbIQQyDFBFLRbwamPt4D\/owoxP8WKX4Unwoh89k5Pn2AVIpp6BFSE1WCGJg1mrtzy1GlaC0YpVBSMk6R\/d5jjIEUmDUlImlcjMxbS4gQk8CWBd4HSp3rQAwTJ6sao9Vss59++u6dB\/+CT1MxO9PfbVZqElriu4iyEm04LKTM9wAgNQipEVHhxgk\/BWarBWZW4HwkBZAyElxACI+ytmEIkQeLkrNlhbUWYySLukS4yMdXa7ZjYGUldxeGq53jtg\/MTlqKWhNiIk0JHzw+hDpN4k9qIf9C1PywsFIaLUEmVKEQJKIXCCUZxwmZEoUMnNSKe41hYSWFikgkUuRifzS3KJ3YdR4vNRHFfFEwjh6rNSlJ2uUSazR1aWhXcwYn8VMiTI6qiByfnPBn\/ud\/zj4fHv3EbffpH9al6ITU39lf+yRNRMqEEAmSQCAQMoGQbG8c096RUgJgfjRjdjanaE9w\/UiYdvSbCWUUOkmYtYajmUVKiQQKYUkSHq079t3IrFC8ftRgZS6ysrCcv\/UTTMMNu4v3iSkiSD9vjPo3UfrO5Cd0pUjkRSu0gihRVUOMHsLI+cJQSYt1iUI4rAiQQEpNVWhEEuw7x+ACTWPQSrHrA7spMJcFTQPJlDS1RVlDmAZOjld0g2AcBU1Zkohsby44OZ2xHXfs3CVKyZVRxf\/i9mr8Z0npzyYvviekQohI9BEp8oUqRIERkSkNL279bruh2Frq01Omecn+WWTsHCDRCIEVEBM4F7nd9whleLKeSNPEw4VhGwSj92wmh3OJsmqoZkum6RpEqhPhzyoj\/pCUCmslY5+wyoAQhBBQWoNWzNuG80XJjDXLWtPWBYU9IXrP8+fXdLsBIRTBBYw1LBcFUxDsh4CwiUJqbveJ9aRZlBWmUuhSc\/H0GWdnc253CWsb3nrjmMn1GYbNFJtx4Mn732HOgg8uwW1Ghr37EeCX3JD+Ytnwf0OJKGWiaiy6lKQoKStNt5Z0Nz0xRjYXe7yQnKo5gogPCRJEr1And5fUKl82+zGwGTwXG8eqKXl4atls9wxIUpI8vpy46T3VzBLcNeP+2ZvJj\/9BiPGnjYZZUcAk2Q2esqlRUpNiIgpBJeHhLHFqenRw7NcDV893XF3v8VFxfHxCCJGUIsvlHCUELiaKuiYJyc3WI4oaVTT4GGmXM1bzmqurK45PjliuFgwjCCm5Xe+5urglDj0nyxlFobn4\/FNSv+Pxp1t2uzHf0CQl4Gdi5HfExN+dHdeDrvKONCVIk2soQhMjBBcxRc3p628Sxond9QUh5p+pvvrKGRZF8IneB\/opIBDcPa4Zg+fJemDvBTdbTzdFQGCbhBD7f1KG+O8M03gKEqU0jdTst57OBWxVYpTMH7rUfO1uy71WI71ncpIpSnZD4rqLfPD4lsfPb\/mhH3qDYRzZ7CfqRQu6pJsStpwxeIEoKsqy5vb6mjt3T5g3NbN2wdmdOzy92PD8esM7Hz3ik0fPGaeRUhuqQtHMK4yGFALX64Gb3ZghzwF2RS9ellL8AS3NrwudrqSJxJgQSqPM4URFi+tHUhQcvXQPZQS+3yK0YhpH1MOzI2JKhMkTUqJzsO4TTzcDt6PDjYJ+hH70X4Atikb9EVvJPxd8KtwY0FoybQXX65FdCMgYaZsCVRTcWzX86MMVJ7XmyfM97zza8ei6Zz14bFVTFJKqKnly03G9m\/jyV17l8yfP8UlTzI7AzglJgFQIqRi6nl2344e\/9lWaqiSmxOX1htt9z5On16QouHPvnKIouL7dM\/nA0XLG2emKZjanqDQXtx1dNyJeAEgBkZl34Q\/ub9xvV619pGtJih6pJUorph4KoRHB4dxIPasYug39esLvPdraDCt8MlztHZspkRK4KSK0oEkG7\/2Lgltq8a+2Wv1phGH0AyGCu4FpyC0kAtqyxFrLq3cWvHWkGLY7fuuDK9553jGlhEQS8Vx0gVfunRLTxMv3Tvjk2TXPNoL58QMur26RLZR1iYuJstGsb27YrNecnx4zbxs+\/ehDLq8vcV7Q1hXf\/PqXsFrzyWdPuLjZc3m94cnzCNJQNDVNobh\/tqQqc\/eWb+OMd1avlhy\/VM6efdD9O7tr+afrxK\/US4G0AhElyIEpeJwPmP2Wi4\/31Ecr7NwyrJ+g3nr5FBETuzFy2fkXT0hqSTm37PYeF9LhFIh\/VSD+tJAFdrZgv9sw7iJ+TLkjEgIlJcEHXjuf86OvLPC7Le9+esM7TzqmJJCIQ78qcCEQIrTNHKUVRimEUJycn7DedTjniFPu80WKTGOPi4m75yfcXF3y\/gefsN13lApqq4kJprEnhsC+37OYtVirCC4hhaAuFG1ZcLWeePTsOn8kCQ+\/OePN33VEdSyoZkppVf++9RP\/9tiNH9ezEl0odlcDbgqYckazXKKMppzfZXF6h5vPP0e9cf+IlCT7KbGfvr\/zzOGNjUP44kj\/gkD8mYQg+oSuFP2+w\/cib0QBSilCCLx2\/4jf8zvuIdzAh59e88HjHSGCEaAOu9ZKiRIwOkc7azBa01YVbupQUjDt98TJIVJCpIgAQoSiMFgtuHx2TTdEoveMXY8LHiElbbPkwcv3OLt3xjQFjJY4N1E1Ld4H2lLQtg3vfPIU7yOLOyVv\/PwxqgLXJVJKFEtUmIrfu33e\/aNu0z+SUhOnyDgFVif3WZydUS9OKMpj+v0t6ydPUV97\/Yx+Ctz2gcm\/aHyJIeHHeOhFxX8L+N8DMpGIKRLThJ8SKUQgoaQiRljOKn7\/T79JawOffnrNe4+2TH3GZxMwAloKFAlrFLVRKCFp25rVrILgsQSE81itMFpijKIoDMYaCi1znW5XWFvQ7XfE4FhUlvPzE2arFUVRcXZ2RtvMqMqSYRqpmgalLNP2iuNlw7qfeHa55e7XlixftpAkUwduCAhjKauV8bfx54ah+xvjflpbq3CTo5mfMj97iSQL+t0N3e49hm2HPplXbPsN3ei+gAQ\/UD8AxMOU0p8HlBCZnUFAnARxerHuSKWJ3vHNL9\/jpJY8ebzm0WXP5CEpuHaAFLRaImKkLi1IwayusGVNbS3z2ZyT2RwVHa6aCFIglMaWBdZqvI+ECCEJbLvg8vlTdtcCn4AwYNyG+6sHtOcPWHc9J+fHoDynd36Ui2eXHJ0es3sWmfodX3n5nHcfPaNYGqRsCV4jtMPUpxyfvEUc4fKdXzuKV+L\/Yirxh51Xu6JQpNQzb05IKXKx3yBd5PzBEt3WBfPGouRE+D4V88WiFimlvwii\/cE\/lUISXMZ8AEprfPC8dL7kh18\/Yn19w9PrPd3gUVKwDoGIZEaiUYJq3lCVBW1dUdc1R6tj6rahLQxNVVIUJVIIeu9AWdqmQivo+p5hnAgh4V2AtiWcHrO+ueHyZs369jOmfuSnfnfD\/Xuvc3l5w+roGBkhhYQtS+LqHBuvOZYD95YLlG5Q+hQlC5SAYnnEvXtf4fGHH4JIuD68JoT6t8rW\/CltGoKEorTUqmK\/WfPR5z0iefSucwxDOuCqvCOlkBglGH34N4CvfvHn4gc4p3hYdCklKSYUiW9+5T54x+26Z995KiO52gykCHOZWJaSWWNYLltWywXL+ZzZYsFytaJtWqyxFFWJrRqKogApkdpitSYkzzRNdNs1rh\/wk+dkMWNuFZ9rjUqSi5tb\/tF3Pif5v8Xv+8NLzu\/cZX17Q5wcd1+6x\/X1DYvVMburgbPjijfutOzqc2az+4QJqApSjGyHazY3z9ntbvPpjPw+Zc0f0lX7n\/oxMPYDw7Tj5unnxMkjtUa9dL5k3ztGB6PPx3lZG2a2+Nnd5P7sF5hGCCgKlTHnF7c4IIQgxsSrd4\/5nV9\/me3NDc+vO2JK+DHw5HbESsFppVnUhuNZyb3TI+6ennB6fMrZ8THzeUtZlMxnM5rZjLJusNZQVSV1nUF4W8+ZNTPm7Yy2bSmbiqqytM0MWxQYAVYERjdxebUBd8vrX3oTTIOUmqKwGC3RWrNd76gNNDYx1TOKs3NiFFTFnHnVIkTi49\/+bZ6\/9ymLxZwAlG3zO53b\/xUj6l3RnnFz\/Yyrp58ybDeUsxb10p2jzEwj2I0BK+H188ZWpfrLzzfTEhJSCoSUhJCIP7CIL+qjgG985SEPTkqur9Zc3nYYY7i87enHyNG84HRmmNcli7ZhuVqxWi5ZLFZUVUVRFiipMUpjioKyKLEmXy5SGaTSaKlQRlHYmqqeYctMshhjaMo6P+84MXYdm8EzDiNnRxXnD14hCUWMgaau8mnyge36mtXMEoGwmhMRxAR1UVIVLd\/91m9S6hptNfXyhOidid6\/sjr70l9FaobdLcPuFh87khiRIklihPXoqK3k7rKg9+5f7n18+AX9P28sWkKMXyzi9xczkWiqgpcfLNn3HV2fb\/PM3nhqa6g01KWmqQpmTUPT1FRVg7EWqQ1GFxTGokyBUgqtFKUp0LrAmAJtNMoYtCxQ2mBsQVnOWCyOmK+WNG3D2ekJy\/mC1axmZhUXFwOffvgZ0fc0sxprDTGCLUvqpibICi8s56VB9ZdE4TCyZEp7Pn73t9lc3rB6+BZBz5nGyOzknObo7s8X7fLnhUhoqQlhQlUJZUALYPSBwUXO5wWdSHeGiV9cb3sKq5h8xMdwEGz+8d2YuTvJg\/MV80qyudjS7R3KFowhMQWQyVPqgkoramupqoKqLFFKIaVAG5XrshJIJTHaIJVCSIHWCk\/IkoAEZSRSaEBirEQQIUXi3BH9xOb0lM32lvVux2695dOPnvH12xvOV\/cIMdJvdiglKQuLMiUewcoImtsd3bJmFNd89uH7fPtv\/SMKe0y7vAvB0G23tKsz9vtLiP5\/po391aKZBWUlEk3yItNoQYCtFEnAmOL\/0AhVVYVBAsPUs+vy4Zda5qN9gEZSSYSU3DlpcEPPOET2fcBUBfu+Y\/SRpoC2UFRFgbUWa2qUNCij0YVBSYFWEikFUh3uO+KBgvPEEFC2RkqNVBopFRJJioAtSAhmc4GQgimOjMMWt9txezPy9GLL808fcf+NH6YuK6bdHi0TVdtirMkoRSQWY+Tv\/I1fpRML9pe3TNuBu195GasMVVFxc\/UcJRXWHiHgtcqW\/4x04f+VUsTaApcCEhEwItJYzUQ6Om+Lfz65RFlpNv1EU1iMyLhSyLxrfuCmodKKZWkZ+4FxnOjHCa0F2z4wpMiiULSmxJoSZSxC5QcGmctLCWJKCK1RWoHIFwKC3K0IiZIqL26MiJg7HUREKZVby6qgnS84PbnDnXsv8eDBfe6czxjdyNMnT9jfXqCkQghIKIqmoZ23JGEYkZzMFxylisX8Ndr5A5qjU8pmxWZzi3OObnPJ1ecf4MeBcRoIMf7isF\/LYbtlGh1JgFzWGkmkd47O+X+pFLpyMXG57fA+8UMPFxwvm0w3uZgZ4MNtnZKgKSRtKXGjY9+NTD6hjeFqcBgBlVUoq1HGIrXKXzIDe5HyA4rkhclNwEHjS1k7EYefJYRAinycU4qZUCUipEQohdAKW1ac3rnH8b1z7j04w2jBxcUt26vHiDhSVOUXh4l6tsTYgoBFK82PvHKH7cVHJDrKckUUmvXl51w\/+5gYB64vP2N3+Yj+5orN5cXDq6vPfq93E957ysIgT5fNYZtTuin9wvee7Nl7jxMRWcB+8jgJKJk\/9AE\/ZtgTmDcF1kjcNLHbTmhpQAr6wWOFQEqJ1gahFFrlo0wSSCEIIfe2SiqkyDSZgHykoyelREjxxYcPweNjIKb8fSnGrPoBUilsWTJbLjk6OeXk6IjToxnb9Q3b62t8v6G0BiRowFaWoqwIyTAFeO3hHdTuKRdPPqSoZ9i2RRnJfnMB0TP2O7rtEzY3j7m6+oipv\/4XbalwUwQiEhI7FyGKfzJ55qPOYrkQgmjhvWdrXD9ivmCFZK5nMSWkgNOTGTF6nPNsdyNVoXHBMU0BJUBrleGLtll2FYKseipCDHmhkCDUP3bUSaCERBuDlDJfbAIO\/NFhVx52qlIvamhRVCyWpyyWS05PFuAD29s1426DJGFUvm2rwmKKEltUbLuBVdvypddeJroJksCPI83qiLqZY6XAGkFioO8vub34DD\/2P6G1fqilpu865OObkadrxzjGf0YZ0AWg0hfUItFAWyRePaspy1zDDjcC1irmjcUPE8Pg6KcJW2u6wTOFgDZgtPi+CC8EQoLRWRjTWqOVziKykAiRrQ7psKB50XJrESMg8vflXZoOu1GgpEbZEqUMEokuK2azGQaJFIKx69ne3BCnHUbCNHaURqKNwhgL0jL6iS+9dp+iLokxsb+5IbiB05ffZH56h5OzU4rC4PpA2Ad88AIh\/+miMjiXkO8+3SKFWCjBTymjKFUWvlMuYIQEnY9YKRAxa9ikhCksVWFRMTL1E\/vOEaLGWEM\/ZteGkRKFyvxXCkir8oWjLdpqpDZoW+SjnwRKKkxhkSoveBLZ\/pJSIqWs8pFSfg+CfINLjZAqf6\/NdVhLyXy5QCbY3G4RJPyww097pIgHGBdp2iqXhKLFJ8Ub98556ysrUrkGkWFhszri5N6bHN99yOrsCKESGAgpoZT8b+vCYHSDHF1iVqh\/QoJGKLRWGJV3UBKC5BPOJXaDY\/LhAMEFUUBhQLgR5z1ucgccKBjGCRAooRASwmE3WptBt7E1hS2xSqG1RclMpeWLQyLlDyADJKSISLmsCKHQxiKlRQiVhSepUQi0MggpUAqMLTi7c44bI5NPxJgY9zus1VhbMPYjZVkACW0tCENbNXz5lYcUqyfY5jPcsEcryWxxh2DmCFtRNgVoiY8BXYg3irK4V1QV0vvIrgs\/50IiBY8gYaQ8VCKQUSAShCg54BZSgjA6Gi1x44Dzjn3vKUtNoTXO+3wTS4kiF3clc0ditT3gRomyeTGU0hibb08ROdRilW9jKRFSHRb3sNhSo5RFmQopTe6ObIXWFqksUmq0MixmLUZpun5CVRUpBLQxFLYkxIhVAqkFWltiEuyHgXuLu9RNTbnaIOU1u33P3k2Mg6fbO9KUoI80ZUV7tEKXzU9Z26JjSATSN0DgfMCP4OOhp5bZE2OkZt07QoqZ7UkJrQSzQuFjhJAYhsTyuERIzTgemCGR0AiUseiyRKrc8kmlkMagjEHpjE9RkMhWEMQXl1o+GgIBKUIMDPuOse\/pp8D17Zbge5qqYXV0RDOr0dKgjc19upZoJRg6h7bVoRPylGVFP\/RIoWjaGa7b4oaJMHqWumRVnrCNV1TLgccf\/UMkBX7aEmPPsJ2IMWHKCmkKSPYn0eGXdII7CO6RIE3Q64hWh1s7gZWC\/RSYQq57banxEaxRGCHwk8c7SDFhTUFMAXx4sXNRiilGnl7cMD27wZYVbdtyfHLM6ekpR0czGiGREqKEqHLNVCq3OSl5pnHi5uaGaZj48L13uH52wfPbW4q65e6dE46Pjrm+boFIbUqWqwqpLGWdd+TYTWhhEXJCymzytNaSgKZu2HvHNA504x6TEi8vXuO7naFY3NJ\/9xGKGfVqxf5q9333nAh47yjM4ieVGtBSi69+v6BDdBC1ILm8Eu6FZJNf+8Ed9BWLCx4fHDEoEAqt9AGWHFh2ATf7nushoIVgiomUJD4kvITj+YK798555eFLvPLKS9RFjS0FRhsKrRBaI9zE9vaSRx99wjhODP2ek+MZr7xyn+M7ZyyPjpivzjBVQ4yR\/XrDxZPP0GKiKEqq2uLdyDTeomSJJOtKTdMyDCPG6oxxTcFuvyZ2a14+uccTKVmnEm0vUbKlau+zfn6ROYcEhbVobdBFdTeFdKRjjG\/xA8R48jANCTwQE4nvdzJZgEoUWhJCduWOCpQQKCNRRuPDwWh6+J7CWO6c32O1mlFUJW3bEIPn4uKS5xeX3Dx9zLTf0HV7Xr3\/gOXREUVZZEKjKEEptDbcf3COcyNTN2PqO4IPdLdXyOBRPrE6P6csZzTn58zqkqePPkRKTVtXQGTYrynLDPgRoLUl9QNagtIWpQwIya7rmY8Dd5tTnFAk9R6SwLB5Tr\/bH+yACVsu0LZFmpJyVbylNfIhklzrABHBekESkrZWDM7T+YgUAkt24lZKkKZI0BKPRxuJUhJTGFwYXmxgaxSrtkb4nn4PwzDx\/HINSAoraGdH6P2OOO54\/Mn7hG7PK6+9zvL4BK1rrClAZSgjkmPT73n8yed8+7vvcduPLJdHHJ2sOG4\/4a3X7vPKm2+higaEoF0usHVFU1YMyTHs96T5DAS5JseEQBFDoiwq3NgjlCVGQX9zy\/nDY7amoJodQTexvXxO6AO2MAx7xzB06EWDMJI4jq9oK9WDSOQLAfH8qOaHX1rwwWc3vHxnwfPNnrcf7YmAsorSKiaXsDID9xQzcaAiWKMZnMwdyQFH+slxO3luL255dN3TuQmQLJbH3Lt\/n0Y2TJuO8eqCq+cblFK8+uabmeTQBteNdF3H+vqKD995j1\/\/zW\/zZNfThZET1fBpf8nNxTPefO9D\/pDUvPTaawQiPkzYumC2bHE3l7h9h5t6hAIZNNPUoZQmeIfSCq0spmjRbcvm5oazMNLImqkLyHHC+YmoEzHmk+ldR9EYxu0FT97+8L72KZxM4ftne9VaTlrNkyJys9+y3voXVO4UIsqpTGFJQQwJU9l8syaBsRbGgcMljNUSLyKXu8D3nt2StOVHvv5jXGyuM9ZcLOncRK00\/eNPuF7fcnlxSXQCIRXBB4ZpROqS65st73z3PV7+8o\/wMz\/yQ\/z1X\/kbvPzwVc7P7jFTil\/5q3+Nv\/1f\/xa\/p6qZtRWJQFmWzFZz+t0tw24gxUyUSCGBXIOnbqQyuTGQWoIq8M4jtzt82LG\/vaUUjigmhAQ3TCQSUx9gmHjy3Y\/o1tsT7RLLH5Rho\/c8uenpXD6+l9uJgwcfHUESUVISyebMsjD4OCGkRRiLkBalEhqoC4O2BqESy7bmZHXKGw8fshqO+fSzz5De8UNf\/TKPvvcuZVFQmezAUEbn2pwCEYUu59h2yfz0PipFpqsbXr\/7EjhoSNw7WfEv\/MI\/R2ksaAhJURQWQWCxnLG+yBeOHyeESAihkAhiioQwIjAYo7I6miJTcMSpJ1xckfyeSUi8O2y2g80lDJ5H73xEd7ulNHqpBRRSCkLKl8Y0BT78fMt1P1FoiZCCGlApopWksIrtMFFpAI2tC7qbHm01iUBM5O4EKIuC5XLJ7LjieLPFKEX39GNWdctLb76FMQXd1QUn85bmpZe5efIZVVliy9y6xRjQtiQ6x\/2XX0YSuXn8lDRu+fE3XqasW8qmZbmcUc8qRISUIil4oh8ROJrZnLIwBD9l14YQeO\/RxhKniRQDKcXc92uN1QqXAmPfcVaWFCpgqjlIh59usz06d\/yYIXBsNSO0OiUaKaEW2Uy0HkcWVcF5ael8wvuITAJpNLN5wWbvc51IgrIq0IVhipHGSlIMuW07WJe11pTNjNnimOOjI\/puR2EK6vkMYywhCqwuGUfB0IOxIuszSr0QM5QQaKWwVcvR2V2apiVOI7Y01O0MXVVoq5Apt7VSZsrOAwRPUdQUVcn17Q7nI0YJusFhywqmDpEE\/ThRz5uMhWUBWrPd9zx45TXuHp3yZLdDy4SWAoxgURhefukckuI7737CEKLSAigVzApFkJLr3tGHgROrGbuYMyRK0tSaaYrcDg6tc7s4aytS9CQPxkhiCGijD3Y5ASm3h1VhODk5Ix3kA2UNQqhMV4VA2nhKEZgk1NoikiCkdOhwBCJEiqJGHIFvG1IIOUoic9eTXLbWGFsgtCYFhxQepTIkE0aTpECYgihEtuuRiREUTH3PbHmCqSq0Ljg5usO021CVBV9+7RU+\/vX\/OqccDJzUFeN64OEbX6GoW37z7Y8AgRaC\/cmsarTw3Ey5VJoEY4jsU8SFREFgnwzD4AkxUiUolGI2axj6HSAojTgQGhElMg0XvCdOHrynMJq6nRNFPn4+hBwUGjwqBVTwGKnQRUGMCT85pASpcgorBrCyQWhBECMpZmI3pZi5SBRSGbRUxBSIMtNvWiuE0CipDySHQYhACC73+EIxuhE\/jDRNw63SWFMwKE0\/7Hl4dsyiqRmZCD7x\/LLDe8HLb7zO++9+9AX6DrJQYlRErnaBm53DAFpIbrvIGKBQAoRkvZsO\/iCJSjCrLE1dMAwekSJVkd1rpIhSIFPCBU8KgXEYCG5EkNA6fygjNUoIRIokNyEBYzTz5QKtNdF5nJ9ICZQxWedWKpMfujyEiQxaV2hTZC5SKIjpYB3McoZUhhizbp+Cz\/hRClJMFDpr6jFG8BN1XaOszfduknSbLfOm5PT4GKkVcYJhjKxOl9y\/f8bHH3\/Kz\/zMj\/Pg\/t2dPKqL29u952bwWASLQnM7RMaQTfqVkgwhHiSGhCBSFYZmXqAVBDchSSidfdYie6ywUuKdx7uR4Eb8NOZQVEpYbSiswUqFihHfT+z7jrKdsTq7i1QS50bcOOCDQyaB1pKiOGQmVUWhW6yeUZgWW8xQtiRfcWTBDIlKeTG7fsRNDq0FbpoQUuHGPULKw4MVTH5ASoGxxYsH13U9bhw4Wy0QQWKSZFZK4rjn3\/33\/n2inPhj\/6P\/AT\/9sz91q4Vzl\/vRv6ak4GxmuewdIUYEkqPW0CjB1AW2B7K2MIq2Mti6xE0D45iNUlrDtt8h7ezQhiXG0We3b4ykEEghHJQ\/QfDqkP0T3G5uiG7i7htvsTg6YpomZnWNUCVuckzdgNYaN2zQSmPsDJLMYpiUSCVRxiCFgDi9MPVLmW\/o\/a6j248UhcFPA1K1jK4jpTnaaIwR+JDLUVWXlGXD2K0hSobtlpNFjdGKLuToXkqBTz\/8mNVxy1\/4i3+R25v9pQxaPQopcaexuIMZHyQJcDESNdhCUZaGolBZ7ColUiSmscdP+SasyqzJZCt1dsj2Q2ZuYsxCvhLqEJhMSAnWWKIfmYY9TVlRlTW2KNDWUjaz7G8sKpASbS1JKK6ePWJ\/\/RiRDiy5ktlc8EViS0iUFAgF3k+k4NgPPZebvBG86xEiEpzH+wmBoCiLA1UXsErSdXtsWSG0ot\/vOFvNMzdbKqIWOAJeC55e7aiWBT\/+41\/\/XO68\/6QwBoVg1zkKAcoI6lYyqsSn2xwbybeyoJAKowyEhJs8IeRFkQICWSSSUmC0oHOO\/TAw9T3ROxKeFCNaZL2nbiy4jtZKmqam264JY48xAikTMXlkCizmFbZQVLMVVbvk5tkn7C4fEcOIIGSdO\/mc3hK5\/KgQkAIimd1\/sh5Y7wfcMOBcyCzUNJIAbQwxRpwLaJ2dH2XdItCM+y3zwlJXNU1j+Ymf\/iZ379wnDIk0wMWjNVrbT6RK6XvHVcFl5+gQYBWzowpb5JsbmS+E3aanLSyF1RgFVibSQefODErudlLmgzEaXIhsxom+H3BjrnkpebRWaBXx00DXbVAq0c5qLp495slnH0N0ROd49snH\/Nbf+9s8++B9ogNjW5Z3XsK2LReff8h4e413A4KITAlSPFTJlOUNqUkxB54G7+l2PeMwEYMjiUjwE5FwsM94fPBIBbO2JjiPNtnJkbxjXtd4Aq++9hKvP3yD9IVLPMJsNn9Xz6x8uxsd08F1NhFR00j0mciwUuBcREhFUypEDIgkEd4TQkASMYUlhpglU6VIEowUjEmwHR0+Tnif\/TkkTxIZ3qxvb4g+EYPgk48\/pev2+N8M3L\/\/AKlKyuURX\/6Jn0NqTZIWmSRKl5w+eJNPd\/8\/rp59yKkFbc6zC+SwiDEvLSEJQpJc7ye2UyJhkDIhhcfoLMuWYoFLGfgHnw33yhiGzRqlLFEotNRYoTG25Dd\/67d49sHNC25CGf1ktZhdSyX109vRPYkp4UOGLiEGRsBqcGNe0NIqSgNCZso\/eYcPMef2SIx9j7EWpWTWXkggAvsh0g+Ovu\/x04ibBqaup9tmo1OQEjtbMF8tOLt7h6Zpef78gu32GqUC5azBlk3WbER+WEW75OSlVxmngfX1U\/r9mpQOpoLoCSmAVMhDO7jpR4YQD6JcJCARyuD6Icu\/JKTKQF5IMEaxWK4w1mTy1mhsWaNlzZOnT9iHDfPj+rCS6e8\/v75Cb8eIS\/E3BPIPli2UjWRyEQPgIbpMZlQmq3lJJIzwyJgIPncUBM\/YDyRdEWNEioQ1Ah0TvQtMKbLb7xmGHuc8frtlGke2+44gNeWipkgrbGk5P3vAw7e+Qt3O2dxsSVja+RExikMuXSCEZXn+MjcXz+l2O+rdmqquEcYQARHzMYfEMPZsRsfkI\/u+ZxwnKqnwIpDIXzmfLVBoZIoU2oAFHzxV2yC0oWhK5Lqg1Et06SjaAdl6bnb7b\/2Xf\/1vIteDA\/g72kjqhXkRfldCMPVfmKdAGUVE4F3MAfGYslB14I1CDMSQ2RGhDn22ycTw5DyDD9n9pRRRKSbvuN2s8S4SJjBR0sqa1Dt2T6\/oLjrkoEi7CX+7IW53hG1H2A+kYSSFiKkaRp9LRRKglCTK7ysjKUbWe8ft6EDCbjfiXSD6PmcLD3q5jLm2hpggTJSlRiiB7weOTk4oqgW4iBSW9vRV6qPXGQbP8p7F1stvBVWiXTZF\/WpM0SdhtYuJGCEOvBB61EEKDT6j7RTAfeF4OWT6hjEQq4QuLEJqpFKUVjK6jt3oOQqOYYo4B82iQWpD9+13efS971Ery+l8xtDOWSyX8PSGG\/UuD7\/6Zfy44Mn1ewiV1cjJBz7++FPmd48pVwW6aiibZe4jhUAmRSQQYyZhP3l8RYiRmVLs93v8ODLsd+iiRX7RUEiDn3aICD5liUTjmNUGITS7oae2kkYpkBW2Lbn4qCLOug+SHx9XswX6sBK3RPGtEOzP9t0Ik8CNGU+KQ7+g5QHeKEGaArEAlULWqIVg2zmkjRips4dHSKoiL\/LtznHvJLDeb1l0O5rFEe3Rgrsvv8LlZ5eM11vWU0KOERMlKkjmqxWXj55TzQJSSsqmRakSFHzlm\/do7qy4uPiYwkqqpkVI9cLgFVIkEtnu13zngw8pDuMcdvuJ4B3Rj4whS8tEhzKGJBKCREJhCoPcr2lbQ0Lz3bffpTCCO\/OSR\/0Wr3YUxYI4VX\/Njxti8NmKGCIIkf7z\/Xrzs3HkcGQF6nBMpFRoAf3kkGRslgeXJMpSo8uC252jCmRJQmuEnqiNpkFwux3Zj4G279jerpmv9qiqpGha7rz2MtNqB\/uBqqw5Or3L3VdfZ3XnJdCW5b0H2LLI5UMmTKXRNfgYWIZjlIhIm32XMQZIgRATksRvv\/s+73\/8CIlgSpJu2OPHAakEu80OW1qmsaMpy2wjVJI4BlxyNIsV\/X7N9nbP5c2GfQo0VctMWdbJIG2Rpt3+v3B+oGzP0IuZZdc5Yky\/rIXcTMR5PMiK2T53YM9TriFRCNDZq+hTAKXYTYF+9IhuJPhIWVqcGygKTa0FW+e4uNlztGrYbG9ob6+YiHg3YaqSoiopjKG1FVJWOA0DE3VTIeSIKC2iMmgNKQa8z\/N5yqaB5DKbHnLgKsR8yjebHf\/FL\/8aU4jYoshae0x0+w4RE34aUQqmSdOSEAfF1FhLt1+zms+RacZmMxGSyZAqema1JcgVvXr6D3bD\/mOpFbKYo2\/WLmOvyBBj\/A+BPy6lJMYvfIl59\/mDwTREaEqJUQHlElOU3NxOGBEZhhEfHMZoZGGxZZ6PUcXI88s19+8sqe2ey4unyN2G5AJGgjSSclaxOL3LydE58\/mSpm4p6grVFIhCZHkzCVKMh1BoxFhFCGSkIA+mVe+QwfOf\/JX\/iu987wPawjLGyMJKFoWl63PL6qaBGKbMpi9WSC0QzlHYhkFIgp\/QpsCUDWfLFe88fYJMibJIqGnD7fNH\/4\/kA+3JOcH1yJhSnpBCJIT478eYBmP0wbAkXlhPEHmYEClijab3ILTIopiDFCVGRrwLGGMQksxi15paAc7z0SfP6UfP+uaWm2fP2G42hOjQUmLQJO+IaSDimXzPNPVMw57gBpIfITqkyPAq6+yZiUccpqREENHx9\/\/BP+Cv\/c2\/TVOWhBRREs6PGowWTNOYZQcp6Pcd3W7HOO7QVhG9Q4iIthafIpML+Bh5441XkcPAdrMhxh63vvgE3\/3y6Cac82grkUJ83wQAXAH\/sXPfD7lnGAEoQUCSvCQmxWaEyUuQkRQTk5fEaSIesJfUiqaxtI3FGsGs1Kyvdjx7dpUTXLs92+2OEFOe1CJAyxwyt1YCgRgC0QWCD9kjmb54XylbY8h9fjqUohQc73\/vPX7t136NGCPzsiAEaK1l2WiMFIQo2G3XtE2NlJKYErv9DqUPuz6MB5OVIImISB4I\/OQ3voFwnrG7prt5\/pcLo2OIge72hma5QqaD++vFoqX0fwWGGNOLYKcLiSQEw+CIAVxMfL6N3IwCKQLWKsYxMAwj09BTFBXoHMZsW4s1MCuh1HD57Jqbm1tC8Exjz+hcXggB0uRwUkiAsqAMUWWvcLaXixf5x\/x0Y2aqhCI4x6cffcR33\/4Ofd9jVHZ\/oCSz0nJ+NCfJRAiRZ4+eIhQ4n3nW6HOnZpQiTBOlKUhonPMsFw2PnzxmsZzxIz\/0Na6fXH28u779z4MLzOdnlNUp108eI794wj\/wepoSfzlrvxzqYqTvPTEmlIRuhP0EQwggNIKI1fls7W9vUEZilEXrmqZtECpSV4r5TFNoweWTS7pdj3cT09BnvRlB8llSCC4rlFJatCpRMvshldYvdlE8dC4ISZomnj7+nMefPwE0fT9RWcPoPK1VnCwLVserfFmGxNXzNdE7iqpgu9lmWWSaMk\/qOowBJRND55BScPfuKd999x3eeu0l7p299L\/r9i5Yq2kWDU27YP35I37Q0fniJUT695B88kWNTCkxjO5gTRZsegcpoRVspkjy2cFGgmG7RYSI1jnsOZ\/PKAqFNjBvDVUp0FJw8fSS6ANjPzJ0E85HfEz4IRJ9QgQFUWBM9kJKZV7U7UTK\/nNg3O949vhznt9ek7QieM\/Yd1glSUiaUvP6K+f58gSEVnT9yO31mqOTI7ouM1PeTRipCG7EDbusR00j++3A3bNT5nXNO+++\/Xd+5ze+9rcWs5qEYNjdcPPsE2II319IIUTGf9ktOwn4X33xd9kTCSIlfEpInWFR7wXdFEkhg1kfYHIT+9sbtJR4N1HVhrptMLagbSylVSwWhhhHXN+R0kQ\/7ghTjyTkFlUIhPCZABYRISKS7JKIKZKCI\/iJ7c01zy+esp8CShqkgL7rMDoT08FPnJ\/MefnhA25u1wihmSaPtobLy1ukSpyen7C+XeOmPHFKaditrw7K54rJZ0Xwq1\/5UjcK87\/crJ\/z3\/2D\/wR1U9P1A6aQJCX+8YU0lUWYAxkl+HvAf8pBGwwhYo1hiAIhNUnCbkpsxyyNqpT\/jRSS62fP0AqcdxS1oSgtuiwoSoUpBbNZQVMakk+YmCB5uv2Wbr0+BJEE2giU\/MIJ4SBNhOgJwdF3O9Y31+x2e4KQKAky5Vo3jn0ex7Ud0Qm++aNfxTvPdt8xjI6uG7BlRb+beP7oKef3zumGATcOQGTWtvhhh+u3nB23NLOafTdyNK\/+rVfuvfT4w4+fUOL40qv3s3RS1syXJ99fyBgjbhwQMuYBmhlX\/DngI5FyoDPESBBZp74zs+xGz+QCMfh85GIkIfBuPAz\/SJiiYrFcIJWmnS+p6pa2nTGftVlMix76Ps9NwzGNG6Zxi5tGUpyIrsf1e8ZhR7+\/5fbiKbvNDT5FpC6QQhNCnm0xdDu221sub26J0fPWa+e89dZrfPjxI1ISRDI2NsYwDj3Pn18TQuD4+ITbm1umaSJGRd3UXF08BTzH84rdfv1fxeT\/k5NlTZKKq6tL7i0qjhrL9vaaomhR8\/n8RW2UiCzucLjJY3LAt4QQ\/yxCmBg83kdcgPNlzbafSAHmSqFVACkorMQahS30wejZIEUef9W0NgcqZV62aQyUZYEi4aYRZMLILFVEApPrcUPHsF+z328Zh56AwJjykM0ReJfn8Hjn+OzDD\/jgww95frVmObP8d\/7AzzO4iXff\/YDZrGWcJsqyQitBChPaGEJKnJ2e0HcDQqbscy8r+n7P0O1ZrJYfTW74E9u+m05Olnx+8ZTHV9fM25p+dNyuO\/puRK2Wi3yJHKaJZngmMqyIAeBaSPmeEPz+lJKsjGRwgW50nB41GBEpfUCqRDuzWAVJKuqqoapr6rbG+YnC1tjCoGViHEeEsPT7iaZpMIUhxcBuvabrB2KKOaKSIol48Jvn2LEQKtcyFCFG3DgSouP54895+9v\/Dc8vbyhLzU988yt86atv8pv\/6F1ubrasljVDPyCQzObzLMZpxThONE2J1tm4JXVCSkld11w+fb62hf4j8\/ns+TiMubOpC37re5+yrBt23Yb9ENisN8iEQAiZ4yApU2gpRJLP7A+Agl8p4H\/dao0F5grk6Cik4PV7C5TM4xuqWud+2Oe5E0IZUAVl1ZIEzJdHzFdHTM7lHM8hY1gWFUVRYG2R21HvCT5iTI2t56iyJSlDyPvwIJVkRhwi++2WTz54n832lmZecfd8xVd\/6E2ePnnG08dXLOYNPgQuLtdMzqGUwWiNGybc5Hj8+CnaKqbJQYgkPyGIw9HJ6k999tmjT\/ATq7pgfXPFwkpeffk+QzIYZTCFpJqZw\/iZ6F9QUAdu5xCYS8ylYGUkM6X\/n43iL909bnjr5WO+\/MoRjXS4fZ8TsykPYSMmbEps19ckAUIpZotjIoKxH1gcrWjnK9w4YbQmR0HA2gIhJFpbCmtzGDYkCCnntQ+jW8OBRA4h5PftPE8+eJ+njz4heJi6jtdfe4hQmrff+QTnA7O2Zb8fcMEBnuBDzmuHDN32Q+Dq8haVPNubG1IMzo3j\/3hW22+tFnMun19TGk2hE+vbGx6eHdPtNnT7kRQChc7M+ovQ5Pdfufc+LQVHNlGpSGEAF\/5ti\/hLy+WMsilyLVSJosrZRDeFbD7VkuhGrp4+JQZH3S5Aarrdhs3NJfWszikuOOBEg9H5K4tAiiQkPoRMJodAciHvlhjxLgekwuT4\/P33ee\/t32azXuOHkQf3z7j34C6fPXrOJ589I8VIVRm6bk8tJFM34v2ErSuE1gy7jtJUdH062G\/S1G\/Xf4oU\/lbwjrNVS1sV7Da31NYgU6DEYf3Izc0OFWHcO7Q8OLq+GFVTlSVf\/6Ev86O\/42s0VvAPf\/1X+fjdjzEqUlaWy2fbf3vopu18af6NtjKSBEVTMLkuJ+VURuZFUbLbbNhcXnD\/pVeo24bucsvTz55QtXm2RPZsKsq6RQrJ6EPuoQ8kRPB517lhQuk8j9LHvIgxRbbXl7zz7X\/I84tLfIjMli1f+vIbjNPIex98wr4fWC0ttixxU0QaDRKGocP7imq+4un1+8z2a2btQ8aUdmlw\/1pRiF\/3bsqdVUosWsvQB9abHToEwm6DEBHvIrNlTR8EWh5aQKU1P\/NTP8nv+d2\/i9dffUhCMgwTr7z1ZX79l3+Z7\/zGt5jcxKyVDP34H1y76cm2kP8HEWVttGA2r7m+GUEomsKgUTTzmu31NcNuw\/nd+3zn88+wLnD7\/PYwvVSitARrMbagcIH9fse07xHzfPk55\/IOTQrnHCF6ovcE73jv7e\/w+ScfMfpAVTec3z3FWM3TJ89Yb\/akFJnNGyLZSFvWNVLC0I8Mu46TOw+4bo+4fn6FMcXje6++9osp+u\/t+g70iC0sUhagoGgNR0VFIsem758Gxuj47kc3Ocnbzma89OA+f\/yP\/VH+wO\/\/fZydn2WrVITZbIa2Ja996csc3T3nsw\/fJ4wdWiViFB8OA7\/iXPqZyYelVJLz45bCJMoiR4hXJ3OkVhgtOH\/4GpfPnrO\/vYGQfUFaaprZgrqd52SWygySEpKyqNBFgSkKpDYkmQ58Y66PTx8\/4r\/51t9ju9uQrGW+WHDv3in7vufzZ5fc3nQIITk\/W6G1Yr\/bIQUIn2OCpbW0iwVF3dLtN\/9ft1\/\/y9M4fn58enIYJJKQpsxTS6VmcAkfFUWTPUkfdZd8GC8YG0cYR9R\/\/1\/8Bf74H\/uXeOO115BCYY2hKi1tO2OaJsqiYNYuqOdHnL\/8KqIoGIc9RRERwV8nEX5JSXESQ\/iqLTSrVUOzajFFnrVTlA1+mjg6PSJJzWffex8RJbrM83isLajnLdZW2bdjssFAKYMyFmULlMgPJh7Av3eeD99+m88\/eY+oLUVd0jQt80XDxeUl+85zfbtjsai5d++MlATTNOH7Aa3yNMGmLlFKeG3UX7CF\/Te7Xd9P+y1Ckq2FSrPb7hm6nm63RknB08fP6Puev\/udd\/iNxx8wGs\/8tOToVYv6P\/+f\/o+Uh2BQU9VURYnRluAjtrC0bUPXDYDg5M49lsfnLM7u8I3f+eMs5xXGRldV6m8WRr6tS\/NNh2rnx8e0lcXaGl3UOcpr4OTsLjeXNwhtMO0CpezBnlxgigpjcn5QaoM2ZY7SHRKzKX0xLQtubq\/54Dvf5nZzDUpjraFe1Ggt6IaJYfDcbjuWqwX3791jvV2jlKLf9+jDdOdC89uzefuLu93+\/zNbzFKeMdzjgqMsC8q6ZNqv2e12FFWNlAlTFHz7vaf86tvfYxhhcWYpW4EoBTr6gNEaa+3BK5hlBqMNymqGMQNkrbO4VFjLD\/\/ID3N0suLeK6\/z6pPPuHr6FJnCr7Tzxbcur6\/\/lc3F0z9am2CMLhDS0ncDu\/XIajVy\/vA1ri\/WWF1k9rvbMex7qjZQVHWOOScwyqJUDrpn9JjJ3OAj65sb9v2O\/QRtZZjNFgezaYExCaGyv6iua2xhGbuOqmpyCDPGG0H4S965\/yilKQgktxeXnNy5y1V0QGCKsN12LBZH7Haf49IcMQzMT0+4Ctd89vkWP3rWN4bXf2rO\/EGJ+pN\/4hcpbfEi5ptSdjQIrfDOM04Z72lT4oJnv19zvFxijCEJnc3udc3y5A6r03Mnkvz17vrZ\/7sobbs6u\/eler6UIiamKVAUkdXRivVmzB5ybSHk1tQUlqKsMYfMdTx4NJW2BwwJwQW6rufpk8dcPH2MMIp79++iqxkpCZTK06mdj0wuMlssWC3nbLdbvEu7rtv9u01p\/yfRh98wWiYjE7po2G62FG2T55rHwMmDNwhDj0gJW5To6pTb9Q3z5Yqf+b3\/PK++9gbvvPsOl5\/c8PTTPW4bUf\/6n\/yTORpxiPRmFJnxx+gmClscAuKKYRhJ0XF6epJnSPoJFwbG3QYRHVO\/YXv5GGvUdn728G\/eefnL\/9k07MRs1rze77uC5Dmal0hl6Cbym5SC5D1aW8qmwRj7YnBdipEYAzEG3ORwo2O33fDk88\/ZdxuaeUtRVTy72jK5ifm8wsXA6CIhJQqjefDSnSf7XfeXr6\/X\/1Oi\/7tNbUc3eupC51mURUFMiWno8wTUypJUSTOb0d1eYKqKol4xuYBSiZfe\/FF+7Gtf5+d+18+zHwc+fOcjbj7rUP\/av\/InMEq\/GL6RxKFFjLkXreuKEAXDOLJeX7Oar1gsVtn8qRTeDQzdhhRz4qusZixPX+bo7muUzWz78dvf+dWyUP\/3k9PjT9y4b2Sa7rVNLZXMvyrAmDLb8bSirGuKqkJJQXQBdxjyGUPMzl03stlu2NxeM3ZbhBL0h99McufOHWaLWZ7Qgu5diH+jsurP37t\/93\/z5Onlb4z9MMboqKoCkSJWSeqqwKVEUdT4MbuCl8eLPH3\/9CUQgTR0FEd3QFfEsePkwVuQEov5jN\/z87+bH\/vxHyOEiP5i3GEkoUQ2qccU0cZgizws048T\/TAQnePo+OiQnJLYsqUVCqkriiIPAJ7GwOgSZVUybTd013t2l8\/6l1996ZcWy6NfCtPNsZu6n2ur5mdFEj8ZQnli1AneuRwvLstsF3Qepi8cbzEb+w+uN9d3RO+wsiYJwe\/4+pdAlh8\/ff7016u6\/NW6ir\/W7bu+LKs86GPXI6WkHyNSaMqqRCaPEODHkaJqqcvqAK88uoIkDCev\/CiPfvO\/ZJU8o66QsSSFrDH5Q8b7J7\/+Y\/zUN76RZ6NBfNHdpMMk+6KwKKOZfAbA+92OdjGnaVumaUJZi0rgpKJqFtS2wIWIUBPSOYqioL+6Yt62bK93fPz2B7z61peoKnPl3PhLKPVLphCYEB8Ybb8aQ\/EGUr2idPlASI6ijcs4harr+jJMEalMN\/mxG7vuJhGe1bPmI1OZD19\/9eWPla3eeed7H18\/efqc119\/lfM7p\/ST4+z8FFNUSKkYxh0ukH\/jh0vZ5K9r8CMhxAzVCo2QmqoqEcqzOL7H42LGsF+jmhnVYo42FmLCGEnSmq7vQEn+\/9gCb4uYZq3zAAAAJXRFWHRkYXRlOmNyZWF0ZQAyMDE3LTAyLTA5VDA4OjQzOjAwKzAwOjAwt4JyTAAAACV0RVh0ZGF0ZTptb2RpZnkAMjAxNy0wMi0wOVQwODo0MzowMCswMDowMMbfyvAAAAAASUVORK5CYII="
        }
    ]
}
