{
    "_links": {
        "self": {
            "href": "http:\/\/default\/node\/14?_format=hal_json"
        },
        "type": {
            "href": "http:\/\/drupal.org\/rest\/type\/node\/pricing_tables"
        },
        "http:\/\/drupal.org\/rest\/relation\/node\/pricing_tables\/revision_uid": [
            {
                "href": "http:\/\/default\/user\/1?_format=hal_json"
            }
        ],
        "http:\/\/drupal.org\/rest\/relation\/node\/pricing_tables\/uid": [
            {
                "href": "http:\/\/default\/user\/1?_format=hal_json",
                "lang": "en"
            }
        ]
    },
    "nid": [
        {
            "value": 14
        }
    ],
    "uuid": [
        {
            "value": "350d0aaf-02a3-4bec-8876-ec9caa888205"
        }
    ],
    "vid": [
        {
            "value": 14
        }
    ],
    "langcode": [
        {
            "value": "en",
            "lang": "en"
        }
    ],
    "type": [
        {
            "target_id": "pricing_tables"
        }
    ],
    "revision_timestamp": [
        {
            "value": "2018-11-16T05:52:39+00:00",
            "format": "Y-m-d\\TH:i:sP"
        }
    ],
    "_embedded": {
        "http:\/\/drupal.org\/rest\/relation\/node\/pricing_tables\/revision_uid": [
            {
                "_links": {
                    "self": {
                        "href": "http:\/\/default\/user\/1?_format=hal_json"
                    },
                    "type": {
                        "href": "http:\/\/drupal.org\/rest\/type\/user\/user"
                    }
                },
                "uuid": [
                    {
                        "value": "a467c5e0-72cb-48d8-bdcb-db9b441fa1e0"
                    }
                ]
            }
        ],
        "http:\/\/drupal.org\/rest\/relation\/node\/pricing_tables\/uid": [
            {
                "_links": {
                    "self": {
                        "href": "http:\/\/default\/user\/1?_format=hal_json"
                    },
                    "type": {
                        "href": "http:\/\/drupal.org\/rest\/type\/user\/user"
                    }
                },
                "uuid": [
                    {
                        "value": "a467c5e0-72cb-48d8-bdcb-db9b441fa1e0"
                    }
                ],
                "lang": "en"
            }
        ]
    },
    "status": [
        {
            "value": true,
            "lang": "en"
        }
    ],
    "title": [
        {
            "value": "Budget resort",
            "lang": "en"
        }
    ],
    "created": [
        {
            "value": "2018-11-16T05:52:39+00:00",
            "lang": "en",
            "format": "Y-m-d\\TH:i:sP"
        }
    ],
    "changed": [
        {
            "value": "2018-11-16T06:37:34+00:00",
            "lang": "en",
            "format": "Y-m-d\\TH:i:sP"
        }
    ],
    "promote": [
        {
            "value": false,
            "lang": "en"
        }
    ],
    "sticky": [
        {
            "value": false,
            "lang": "en"
        }
    ],
    "default_langcode": [
        {
            "value": true,
            "lang": "en"
        }
    ],
    "revision_translation_affected": [
        {
            "value": true,
            "lang": "en"
        }
    ],
    "path": [
        {
            "alias": null,
            "pid": null,
            "langcode": "en",
            "lang": "en"
        }
    ],
    "field_link_to_booking": [
        {
            "value": "http:\/\/www.booking.com\/"
        }
    ],
    "field_pay_period": [
        {
            "value": "month"
        }
    ],
    "field_price": [
        {
            "value": "300"
        }
    ],
    "field_services": [
        {
            "value": "Room Service 24 Hours"
        },
        {
            "value": "-"
        },
        {
            "value": "Outdoor Pool"
        }
    ],
    "field_surrency": [
        {
            "value": "$"
        }
    ]
}