{
    "_links": {
        "self": {
            "href": "http:\/\/default\/node\/8?_format=hal_json"
        },
        "type": {
            "href": "http:\/\/drupal.org\/rest\/type\/node\/clients"
        },
        "http:\/\/drupal.org\/rest\/relation\/node\/clients\/revision_uid": [
            {
                "href": "http:\/\/default\/user\/1?_format=hal_json"
            }
        ],
        "http:\/\/drupal.org\/rest\/relation\/node\/clients\/uid": [
            {
                "href": "http:\/\/default\/user\/1?_format=hal_json",
                "lang": "en"
            }
        ],
        "http:\/\/drupal.org\/rest\/relation\/node\/clients\/field_photo": [
            {
                "href": "http:\/\/default\/file\/8?_format=hal_json"
            }
        ]
    },
    "nid": [
        {
            "value": 8
        }
    ],
    "uuid": [
        {
            "value": "6b1ba670-b4b7-48fd-9b3b-e49863ec346e"
        }
    ],
    "vid": [
        {
            "value": 8
        }
    ],
    "langcode": [
        {
            "value": "en",
            "lang": "en"
        }
    ],
    "type": [
        {
            "target_id": "clients"
        }
    ],
    "revision_timestamp": [
        {
            "value": "2018-11-16T05:31:16+00:00",
            "format": "Y-m-d\\TH:i:sP"
        }
    ],
    "_embedded": {
        "http:\/\/drupal.org\/rest\/relation\/node\/clients\/revision_uid": [
            {
                "_links": {
                    "self": {
                        "href": "http:\/\/default\/user\/1?_format=hal_json"
                    },
                    "type": {
                        "href": "http:\/\/drupal.org\/rest\/type\/user\/user"
                    }
                },
                "uuid": [
                    {
                        "value": "a467c5e0-72cb-48d8-bdcb-db9b441fa1e0"
                    }
                ]
            }
        ],
        "http:\/\/drupal.org\/rest\/relation\/node\/clients\/uid": [
            {
                "_links": {
                    "self": {
                        "href": "http:\/\/default\/user\/1?_format=hal_json"
                    },
                    "type": {
                        "href": "http:\/\/drupal.org\/rest\/type\/user\/user"
                    }
                },
                "uuid": [
                    {
                        "value": "a467c5e0-72cb-48d8-bdcb-db9b441fa1e0"
                    }
                ],
                "lang": "en"
            }
        ],
        "http:\/\/drupal.org\/rest\/relation\/node\/clients\/field_photo": [
            {
                "_links": {
                    "self": {
                        "href": "http:\/\/default\/file\/8?_format=hal_json"
                    },
                    "type": {
                        "href": "http:\/\/drupal.org\/rest\/type\/file\/undefined"
                    }
                },
                "uuid": [
                    {
                        "value": "f879ec43-b7f0-41c3-bd7a-1baaf2329963"
                    }
                ],
                "alt": "",
                "title": "",
                "width": "82",
                "height": "82"
            }
        ]
    },
    "status": [
        {
            "value": true,
            "lang": "en"
        }
    ],
    "title": [
        {
            "value": "Perry Long",
            "lang": "en"
        }
    ],
    "created": [
        {
            "value": "2018-11-16T05:27:02+00:00",
            "lang": "en",
            "format": "Y-m-d\\TH:i:sP"
        }
    ],
    "changed": [
        {
            "value": "2018-11-16T05:38:54+00:00",
            "lang": "en",
            "format": "Y-m-d\\TH:i:sP"
        }
    ],
    "promote": [
        {
            "value": false,
            "lang": "en"
        }
    ],
    "sticky": [
        {
            "value": false,
            "lang": "en"
        }
    ],
    "default_langcode": [
        {
            "value": true,
            "lang": "en"
        }
    ],
    "revision_translation_affected": [
        {
            "value": true,
            "lang": "en"
        }
    ],
    "path": [
        {
            "alias": null,
            "pid": null,
            "langcode": "en",
            "lang": "en"
        }
    ],
    "body": [
        {
            "value": "Vivamus facilisis mi a mauris ultrices fermentum. Aliquam porta eleifend mi non laoreet. Donec ornare vitae nulla pulvinar tristique. Sed vulputate in sapien eu eleifend<br \/><span class=\"client-name\">Perry Long<\/span> <span class=\"client-position\">Traveler<\/span>",
            "format": "full_html",
            "processed": "Vivamus facilisis mi a mauris ultrices fermentum. Aliquam porta eleifend mi non laoreet. Donec ornare vitae nulla pulvinar tristique. Sed vulputate in sapien eu eleifend<br \/><span class=\"client-name\">Perry Long<\/span> <span class=\"client-position\">Traveler<\/span>",
            "summary": "",
            "lang": "en"
        }
    ]
}