<?xml version="1.0" encoding="utf-8"?>
<!-- Generator: Adobe Illustrator 19.2.0, SVG Export Plug-In . SVG Version: 6.00 Build 0)  -->
<svg version="1.1" id="Capa_1" xmlns="http://www.w3.org/2000/svg" xmlns:xlink="http://www.w3.org/1999/xlink" x="0px" y="0px"
	 viewBox="0 0 40 40" style="enable-background:new 0 0 40 40;" xml:space="preserve">
<style type="text/css">
	.st0{fill:#777777;}
</style>
<g>
	<g id="cancel">
		<g>
			<path class="st0" d="M20,0C9,0,0,9,0,20s9,20,20,20c11,0,20-9,20-20S31,0,20,0z M20,37.5c-9.7,0-17.5-7.8-17.5-17.5
				S10.3,2.5,20,2.5S37.5,10.3,37.5,20S29.7,37.5,20,37.5z M28.4,11.6c-0.5-0.5-1.2-0.5-1.7,0L20,18.3l-6.7-6.7
				c-0.5-0.5-1.2-0.5-1.7,0s-0.5,1.2,0,1.7l6.7,6.7l-6.7,6.7c-0.5,0.5-0.5,1.2,0,1.7c0.5,0.5,1.2,0.5,1.7,0l6.7-6.7l6.7,6.7
				c0.5,0.5,1.2,0.5,1.7,0c0.5-0.5,0.5-1.2,0-1.7L21.7,20l6.7-6.7C28.9,12.9,28.9,12.1,28.4,11.6z"/>
		</g>
	</g>
</g>
</svg>
