<?xml version="1.0" encoding="utf-8"?>
<!-- Generator: Adobe Illustrator 19.2.0, SVG Export Plug-In . SVG Version: 6.00 Build 0)  -->
<svg version="1.1" id="Capa_1" xmlns="http://www.w3.org/2000/svg" xmlns:xlink="http://www.w3.org/1999/xlink" x="0px" y="0px"
	 viewBox="0 0 144 144" style="enable-background:new 0 0 144 144;" xml:space="preserve">
<style type="text/css">
	.st0{fill:#FFFFFF;}
</style>
<path class="st0" d="M89.9,112H54c-4.5,0-8.3-3.2-9.2-7.4h-1.7c-2.8,0-5.1-2.3-5.1-5.1V83.3c0-2.8,2.3-5.1,5.1-5.1h1.5V61.7
	c-1.9-0.7-3.3-2.6-3.3-4.7V42.8c0-2.8,2.3-5.1,5.1-5.1h4.1v-1.7c0-2.3,1.8-4.1,4.1-4.1h7.3c2.3,0,4.1,1.8,4.1,4.1v1.6h11.2v-1.6
	c0-2.3,1.8-4.1,4.1-4.1h7.3c2.3,0,4.1,1.8,4.1,4.1v1.6h4.7c2.8,0,5.1,2.3,5.1,5.1V57c0,2.2-1.4,4-3.3,4.7v16.4h1.7
	c2.8,0,5.1,2.3,5.1,5.1v16.2c0,2.8-2.3,5.1-5.1,5.1H99C98.2,108.8,94.4,112,89.9,112z M46.8,103.8c0.5,3.5,3.6,6.1,7.2,6.1h35.9
	c4,0,7.3-3.3,7.3-7.3V62.1H76.6v2.1c0,2.4-2,4.4-4.4,4.4h-0.5c-2.4,0-4.4-2-4.4-4.4V62H46.7v16.6c0.1,0.1,0.1,0.3,0.1,0.5v24.3
	C46.9,103.6,46.9,103.7,46.8,103.8z M99.3,102.4h1.6c1.7,0,3-1.3,3-3V83.2c0-1.7-1.3-3-3-3h-1.6V102.4z M43.1,80.3c-1.7,0-3,1.3-3,3
	v16.2c0,1.7,1.3,3,3,3h1.5V80.3H43.1L43.1,80.3z M69.4,61.5v2.7c0,1.3,1,2.3,2.3,2.3h0.5c1.3,0,2.3-1,2.3-2.3v-2.7H73v1.4
	c0,0.6-0.5,1-1,1s-1-0.5-1-1v-1.4H69.4z M76.6,60h20.9c1.6,0,3-1.3,3-3V42.8c0-1.6-1.3-3-3-3h-51c-1.6,0-3,1.3-3,3V57
	c0,1.6,1.3,3,3,3h20.9v-2.2c0-2.4,2-4.4,4.4-4.4h0.5c2.4,0,4.4,2,4.4,4.4V60L76.6,60z M72,59.4h2.6v-1.6c0-1.3-1-2.3-2.3-2.3h-0.5
	c-1.3,0-2.3,1-2.3,2.3v1.6H72z M79.3,37.7h11.3v-1.6c0-1.1-0.9-2-2-2h-7.3c-1.1,0-2,0.9-2,2V37.7z M52.6,37.7h11.3v-1.6
	c0-1.1-0.9-2-2-2h-7.3c-1.1,0-2,0.9-2,2L52.6,37.7L52.6,37.7z M83.1,108.2H60.8c-3,0-5.4-2.4-5.4-5.4v-21c0-3.4,2.8-6.1,6.1-6.1h21
	c3.4,0,6.1,2.8,6.1,6.1v21C88.5,105.8,86.1,108.2,83.1,108.2z M57.4,89.3v13.5c0,1.8,1.5,3.3,3.3,3.3h22.3c1.8,0,3.3-1.5,3.3-3.3
	V89.3H57.4z M57.4,87.2h29v-5.4c0-2.2-1.8-4-4-4h-21c-2.2,0-4,1.8-4,4V87.2z"/>
</svg>
