<?xml version="1.0" encoding="utf-8"?>
<!-- Generator: Adobe Illustrator 19.2.0, SVG Export Plug-In . SVG Version: 6.00 Build 0)  -->
<svg version="1.1" id="Capa_1" xmlns="http://www.w3.org/2000/svg" xmlns:xlink="http://www.w3.org/1999/xlink" x="0px" y="0px"
	 viewBox="0 0 74.1 64" style="enable-background:new 0 0 74.1 64;" xml:space="preserve">
<style type="text/css">
	.st0{fill:#FFFFFF;}
</style>
<path class="st0" d="M65,64H9.1c-5,0-9.1-4.1-9.1-9.1V23.8c0-6.1,4.3-11.3,10.2-12.5V8.7c0-0.6,0.5-1.1,1.1-1.1h4.4
	c0.6,0,1.1,0.5,1.1,1.1v2.4h1.6l4.6-7.8c1.2-2.1,3.5-3.4,6-3.4h16.4c2.4,0,4.7,1.3,6,3.4l4.6,7.8h7.5c0.1,0,0.1,0,0.2,0
	c6.1,1.1,10.6,6.4,10.6,12.6v31.1C74.1,59.9,70,64,65,64z M10.9,13.3c-5.1,0.9-8.7,5.3-8.7,10.5v31.1c0,3.8,3.1,7,7,7H65
	c3.8,0,7-3.1,7-7V23.8c0-5.2-3.7-9.6-8.7-10.5h-8c-0.4,0-0.7-0.2-0.9-0.5l-4.9-8.3c-0.9-1.5-2.4-2.4-4.1-2.4H28.9
	c-1.7,0-3.3,0.9-4.1,2.4l-4.9,8.3c-0.2,0.3-0.5,0.5-0.9,0.5L10.9,13.3L10.9,13.3z M12.3,11.2h2.3V9.8h-2.3V11.2z M37,57.4
	c-10.7,0-19.4-8.7-19.4-19.4S26.4,18.7,37,18.7s19.4,8.7,19.4,19.4S47.7,57.4,37,57.4z M37,20.8c-9.5,0-17.2,7.7-17.2,17.2
	S27.5,55.3,37,55.3s17.2-7.7,17.2-17.2S46.5,20.8,37,20.8z M37,51.8c-7.6,0-13.7-6.2-13.7-13.7c0-7.6,6.2-13.7,13.7-13.7
	s13.7,6.2,13.7,13.7S44.6,51.8,37,51.8z M37,26.5c-6.4,0-11.6,5.2-11.6,11.6S30.6,49.7,37,49.7s11.6-5.2,11.6-11.6
	S43.4,26.5,37,26.5z M28.8,39.4c-0.5,0-1-0.4-1.1-1c0-0.1-0.3-3.4,2.2-6.4c2.5-3,6.5-3.4,6.6-3.4c0.6-0.1,1.1,0.4,1.1,1
	s-0.4,1.1-1,1.1c0,0-3.3,0.3-5.2,2.6c-1.9,2.3-1.8,4.9-1.8,4.9C29.9,38.8,29.5,39.4,28.8,39.4C28.9,39.4,28.8,39.4,28.8,39.4z
	 M63.8,25.9h-3.4c-2.2,0-4-1.8-4-4v-0.4c0-2.2,1.8-4,4-4h3.4c2.2,0,4,1.8,4,4v0.4C67.8,24.1,66,25.9,63.8,25.9z M60.3,19.6
	c-1,0-1.9,0.9-1.9,1.9v0.4c0,1,0.9,1.9,1.9,1.9h3.4c1,0,1.9-0.9,1.9-1.9v-0.4c0-1-0.9-1.9-1.9-1.9L60.3,19.6L60.3,19.6z"/>
</svg>
